{
    "wisata": [
        {
            "wisata_id": "1",
            "name": "Lawang Sewu",
            "location": "Semarang Tengah",
            "maps": "https://goo.gl/maps/EtuSaaGkRRKdtgkBA",
            "tripadvisor": "https://www.tripadvisor.co.id/Attraction_Review-g297712-d379332-Reviews-Lawang_Sewu_Building-Semarang_Central_Java_Java.html",
            "phone": "(024) 3542015",
            "ticket_price": "10000",
            "rating": "4",
            "reviews": "1.737",
            "open": "07.00",
            "close": "21.00",
            "picture_1": "https://i.imgur.com/ATJ4IEW.jpg",
            "picture_2": "https://i.imgur.com/izlKyvS.jpg",
            "picture_3": "https://i.imgur.com/h2kDuXb.jpg",
            "picture_4": "https://i.imgur.com/MeeIis3.jpg",
            "picture_5": "https://i.imgur.com/CFz23vA.jpg",
            "picture_6": "https://i.imgur.com/OyI7Nrl.jpg",
            "picture_7": "https://i.imgur.com/X1K0PuM.jpg",
            "picture_8": "https://i.imgur.com/08D6ULy.jpg",
            "caption_1": "Gedung lawang sewu",
            "caption_2": "Bagian dalam gedung",
            "caption_3": "Bagian dalam gedung",
            "caption_4": "Miniatur kereta api",
            "caption_5": "Salah satu ruangan yang menampilkan sejarah lawang sewu",
            "caption_6": "Bagian atap gedung",
            "caption_7": "Lorong pintu bagian dalam gedung",
            "caption_8": "Bagian belakang gedung",
            "description": "Gedung Lawang Sewu dahulu adalah kantor pusat perusahaan kereta api jaman penjajahan belanda. Sampai saat ini masih terawat dan renovasi masih terus berlangsung. Lantai bawah tanah yg merupakan tempat resapan air utk pendingin gedung saat ini sdh tertutup utk pengunjung.\n \nBanyak spot foto yg bagus. Ada juga pemandu wisata lokal dengan bayaran sukarela. Sebaiknya mengunjungi tempat ini sore atau malam hari. Kalau siang, panasnya sangat menyengat dan tidak nyaman bagi pengunjung. Gedung Lawang Sewu dahulu adalah kantor pusat perusahaan kereta api jaman penjajahan belanda.\n \nSampai saat ini  masih terawat dan renovasi masih terus berlangsung. Lantai bawah tanah yg merupakan tempat resapan air utk pendingin gedung saat ini sudah tertutup utk pengunjung. Banyak spot foto yg bagus. Ada juga pemandu wisata lokal dengan bayaran sukarela. Sebaiknya mengunjungi tempat ini sore atau malam hari. Kalau siang, panasnya sangat menyengat dan tidak nyaman bagi pengunjung."
        },
        {
            "wisata_id": "2",
            "name": "Masjid Agung Semarang",
            "location": "Semarang Tengah",
            "maps": "https://goo.gl/maps/EtuSaaGkRRKdtgkBA",
            "tripadvisor": "https://www.tripadvisor.co.id/Attraction_Review-g297712-d379332-Reviews-Lawang_Sewu_Building-Semarang_Central_Java_Java.html",
            "phone": "(024) 3542015",
            "ticket_price": "10000",
            "rating": "4",
            "reviews": "1.737",
            "open": "07.00",
            "close": "21.00",
            "picture_1": "https://i.imgur.com/ATJ4IEW.jpg",
            "picture_2": "https://i.imgur.com/izlKyvS.jpg",
            "picture_3": "https://i.imgur.com/h2kDuXb.jpg",
            "picture_4": "https://i.imgur.com/MeeIis3.jpg",
            "picture_5": "https://i.imgur.com/CFz23vA.jpg",
            "picture_6": "https://i.imgur.com/OyI7Nrl.jpg",
            "picture_7": "https://i.imgur.com/X1K0PuM.jpg",
            "picture_8": "https://i.imgur.com/08D6ULy.jpg",
            "caption_1": "Gedung lawang sewu",
            "caption_2": "Bagian dalam gedung",
            "caption_3": "Bagian dalam gedung",
            "caption_4": "Miniatur kereta api",
            "caption_5": "Salah satu ruangan yang menampilkan sejarah lawang sewu",
            "caption_6": "Bagian atap gedung",
            "caption_7": "Lorong pintu bagian dalam gedung",
            "caption_8": "Bagian belakang gedung",
            "description": "Gedung Lawang Sewu dahulu adalah kantor pusat perusahaan kereta api jaman penjajahan belanda. Sampai saat ini masih terawat dan renovasi masih terus berlangsung. Lantai bawah tanah yg merupakan tempat resapan air utk pendingin gedung saat ini sdh tertutup utk pengunjung.\n \nBanyak spot foto yg bagus. Ada juga pemandu wisata lokal dengan bayaran sukarela. Sebaiknya mengunjungi tempat ini sore atau malam hari. Kalau siang, panasnya sangat menyengat dan tidak nyaman bagi pengunjung. Gedung Lawang Sewu dahulu adalah kantor pusat perusahaan kereta api jaman penjajahan belanda.\n \nSampai saat ini  masih terawat dan renovasi masih terus berlangsung. Lantai bawah tanah yg merupakan tempat resapan air utk pendingin gedung saat ini sudah tertutup utk pengunjung. Banyak spot foto yg bagus. Ada juga pemandu wisata lokal dengan bayaran sukarela. Sebaiknya mengunjungi tempat ini sore atau malam hari. Kalau siang, panasnya sangat menyengat dan tidak nyaman bagi pengunjung."
        },
      {
            "wisata_id": "3",
            "name": "Tes 2",
            "location": "Semarang Tengah",
            "maps": "https://goo.gl/maps/EtuSaaGkRRKdtgkBA",
            "tripadvisor": "https://www.tripadvisor.co.id/Attraction_Review-g297712-d379332-Reviews-Lawang_Sewu_Building-Semarang_Central_Java_Java.html",
            "phone": "(024) 3542015",
            "ticket_price": "10000",
            "rating": "4",
            "reviews": "1.737",
            "open": "07.00",
            "close": "21.00",
            "picture_1": "https://i.imgur.com/ATJ4IEW.jpg",
            "picture_2": "https://i.imgur.com/izlKyvS.jpg",
            "picture_3": "https://i.imgur.com/h2kDuXb.jpg",
            "picture_4": "https://i.imgur.com/MeeIis3.jpg",
            "picture_5": "https://i.imgur.com/CFz23vA.jpg",
            "picture_6": "https://i.imgur.com/OyI7Nrl.jpg",
            "picture_7": "https://i.imgur.com/X1K0PuM.jpg",
            "picture_8": "https://i.imgur.com/08D6ULy.jpg",
            "caption_1": "Gedung lawang sewu",
            "caption_2": "Bagian dalam gedung",
            "caption_3": "Bagian dalam gedung",
            "caption_4": "Miniatur kereta api",
            "caption_5": "Salah satu ruangan yang menampilkan sejarah lawang sewu",
            "caption_6": "Bagian atap gedung",
            "caption_7": "Lorong pintu bagian dalam gedung",
            "caption_8": "Bagian belakang gedung",
            "description": "Gedung Lawang Sewu dahulu adalah kantor pusat perusahaan kereta api jaman penjajahan belanda. Sampai saat ini masih terawat dan renovasi masih terus berlangsung. Lantai bawah tanah yg merupakan tempat resapan air utk pendingin gedung saat ini sdh tertutup utk pengunjung.\n \nBanyak spot foto yg bagus. Ada juga pemandu wisata lokal dengan bayaran sukarela. Sebaiknya mengunjungi tempat ini sore atau malam hari. Kalau siang, panasnya sangat menyengat dan tidak nyaman bagi pengunjung. Gedung Lawang Sewu dahulu adalah kantor pusat perusahaan kereta api jaman penjajahan belanda.\n \nSampai saat ini  masih terawat dan renovasi masih terus berlangsung. Lantai bawah tanah yg merupakan tempat resapan air utk pendingin gedung saat ini sudah tertutup utk pengunjung. Banyak spot foto yg bagus. Ada juga pemandu wisata lokal dengan bayaran sukarela. Sebaiknya mengunjungi tempat ini sore atau malam hari. Kalau siang, panasnya sangat menyengat dan tidak nyaman bagi pengunjung."
        },
      {
            "wisata_id": "4",
            "name": "Tes 3",
            "location": "Semarang Tengah",
            "maps": "https://goo.gl/maps/EtuSaaGkRRKdtgkBA",
            "tripadvisor": "https://www.tripadvisor.co.id/Attraction_Review-g297712-d379332-Reviews-Lawang_Sewu_Building-Semarang_Central_Java_Java.html",
            "phone": "(024) 3542015",
            "ticket_price": "10000",
            "rating": "4",
            "reviews": "1.737",
            "open": "07.00",
            "close": "21.00",
            "picture_1": "https://i.imgur.com/ATJ4IEW.jpg",
            "picture_2": "https://i.imgur.com/izlKyvS.jpg",
            "picture_3": "https://i.imgur.com/h2kDuXb.jpg",
            "picture_4": "https://i.imgur.com/MeeIis3.jpg",
            "picture_5": "https://i.imgur.com/CFz23vA.jpg",
            "picture_6": "https://i.imgur.com/OyI7Nrl.jpg",
            "picture_7": "https://i.imgur.com/X1K0PuM.jpg",
            "picture_8": "https://i.imgur.com/08D6ULy.jpg",
            "caption_1": "Gedung lawang sewu",
            "caption_2": "Bagian dalam gedung",
            "caption_3": "Bagian dalam gedung",
            "caption_4": "Miniatur kereta api",
            "caption_5": "Salah satu ruangan yang menampilkan sejarah lawang sewu",
            "caption_6": "Bagian atap gedung",
            "caption_7": "Lorong pintu bagian dalam gedung",
            "caption_8": "Bagian belakang gedung",
            "description": "Gedung Lawang Sewu dahulu adalah kantor pusat perusahaan kereta api jaman penjajahan belanda. Sampai saat ini masih terawat dan renovasi masih terus berlangsung. Lantai bawah tanah yg merupakan tempat resapan air utk pendingin gedung saat ini sdh tertutup utk pengunjung.\n \nBanyak spot foto yg bagus. Ada juga pemandu wisata lokal dengan bayaran sukarela. Sebaiknya mengunjungi tempat ini sore atau malam hari. Kalau siang, panasnya sangat menyengat dan tidak nyaman bagi pengunjung. Gedung Lawang Sewu dahulu adalah kantor pusat perusahaan kereta api jaman penjajahan belanda.\n \nSampai saat ini  masih terawat dan renovasi masih terus berlangsung. Lantai bawah tanah yg merupakan tempat resapan air utk pendingin gedung saat ini sudah tertutup utk pengunjung. Banyak spot foto yg bagus. Ada juga pemandu wisata lokal dengan bayaran sukarela. Sebaiknya mengunjungi tempat ini sore atau malam hari. Kalau siang, panasnya sangat menyengat dan tidak nyaman bagi pengunjung."
        },
      {
            "wisata_id": "5",
            "name": "Tes 4",
            "location": "Semarang Tengah",
            "maps": "https://goo.gl/maps/EtuSaaGkRRKdtgkBA",
            "tripadvisor": "https://www.tripadvisor.co.id/Attraction_Review-g297712-d379332-Reviews-Lawang_Sewu_Building-Semarang_Central_Java_Java.html",
            "phone": "(024) 3542015",
            "ticket_price": "10000",
            "rating": "4",
            "reviews": "1.737",
            "open": "07.00",
            "close": "21.00",
            "picture_1": "https://i.imgur.com/ATJ4IEW.jpg",
            "picture_2": "https://i.imgur.com/izlKyvS.jpg",
            "picture_3": "https://i.imgur.com/h2kDuXb.jpg",
            "picture_4": "https://i.imgur.com/MeeIis3.jpg",
            "picture_5": "https://i.imgur.com/CFz23vA.jpg",
            "picture_6": "https://i.imgur.com/OyI7Nrl.jpg",
            "picture_7": "https://i.imgur.com/X1K0PuM.jpg",
            "picture_8": "https://i.imgur.com/08D6ULy.jpg",
            "caption_1": "Gedung lawang sewu",
            "caption_2": "Bagian dalam gedung",
            "caption_3": "Bagian dalam gedung",
            "caption_4": "Miniatur kereta api",
            "caption_5": "Salah satu ruangan yang menampilkan sejarah lawang sewu",
            "caption_6": "Bagian atap gedung",
            "caption_7": "Lorong pintu bagian dalam gedung",
            "caption_8": "Bagian belakang gedung",
            "description": "Gedung Lawang Sewu dahulu adalah kantor pusat perusahaan kereta api jaman penjajahan belanda. Sampai saat ini masih terawat dan renovasi masih terus berlangsung. Lantai bawah tanah yg merupakan tempat resapan air utk pendingin gedung saat ini sdh tertutup utk pengunjung.\n \nBanyak spot foto yg bagus. Ada juga pemandu wisata lokal dengan bayaran sukarela. Sebaiknya mengunjungi tempat ini sore atau malam hari. Kalau siang, panasnya sangat menyengat dan tidak nyaman bagi pengunjung. Gedung Lawang Sewu dahulu adalah kantor pusat perusahaan kereta api jaman penjajahan belanda.\n \nSampai saat ini  masih terawat dan renovasi masih terus berlangsung. Lantai bawah tanah yg merupakan tempat resapan air utk pendingin gedung saat ini sudah tertutup utk pengunjung. Banyak spot foto yg bagus. Ada juga pemandu wisata lokal dengan bayaran sukarela. Sebaiknya mengunjungi tempat ini sore atau malam hari. Kalau siang, panasnya sangat menyengat dan tidak nyaman bagi pengunjung."
        }
    ]
}